Accelerator_Integrated/test.vcd
$date
$end
$version
	Icarus Verilog
$end
$timescale
	1ns
$end
$scope module accelerator_tb $end
$var wire 24 ! Q [23:0] $end
$var wire 24 " R [23:0] $end
$var wire 1 # ready $end
$var wire 30 $ R_aligned [29:0] $end
$var wire 30 % Q_aligned [29:0] $end
$var reg 1 & clk $end
$var reg 1 ' reset $end
$var integer 32 ( i [31:0] $end
$scope module a1 $end
$var wire 24 ) Q [23:0] $end
$var wire 24 * R [23:0] $end
$var wire 1 & clk $end
$var wire 1 # ready $end
$var wire 1 ' start $end
$var wire 2 + req_pe_id [1:0] $end
$var wire 8 , req_addr [7:0] $end
$var wire 3 - r_aligned [2:0] $end
$var wire 3 . q_aligned [2:0] $end
$var wire 12 / out_pe [11:0] $end
$var wire 1 0 finish $end
$var wire 24 1 R_temp [23:0] $end
$var wire 12 2 R_SR [11:0] $end
$var wire 24 3 Q_temp [23:0] $end
$var wire 12 4 Q_SR [11:0] $end
$var reg 30 5 Q_aligned [29:0] $end
$var reg 30 6 R_aligned [29:0] $end
$var reg 8 7 count1 [7:0] $end
$var reg 5 8 count2 [4:0] $end
$var reg 5 9 count3 [4:0] $end
$var reg 8 : ctr [7:0] $end
$var reg 1 ; en_q $end
$var reg 1 < en_r $end
$var reg 3 = in_q [2:0] $end
$var reg 3 > in_r [2:0] $end
$var reg 1 ? pe_valid $end
$var reg 8 @ req_rel_pos [7:0] $end
$var reg 1 A start_traceback $end
$var reg 1 B stop_traceback $end
$scope module pe_module $end
$var wire 1 & clk $end
$var wire 8 C ctr [7:0] $end
$var wire 2 D reset4 [1:0] $end
$var wire 2 E reset3 [1:0] $end
$var wire 2 F reset2 [1:0] $end
$var wire 2 G reset1 [1:0] $end
$var wire 8 H pe4_prev [7:0] $end
$var wire 8 I pe4_curr [7:0] $end
$var wire 8 J pe3_prev [7:0] $end
$var wire 8 K pe3_curr [7:0] $end
$var wire 8 L pe2_prev [7:0] $end
$var wire 8 M pe2_curr [7:0] $end
$var wire 8 N pe1_prev [7:0] $end
$var wire 8 O pe1_curr [7:0] $end
$var wire 12 P out_pe [11:0] $end
$var wire 12 Q R [11:0] $end
$var wire 12 R Q [11:0] $end
$var reg 2 S D [1:0] $end
$var reg 8 T pe1_in1 [7:0] $end
$var reg 8 U pe1_in2 [7:0] $end
$var reg 8 V pe1_in3 [7:0] $end
$var reg 8 W pe2_in1 [7:0] $end
$var reg 8 X pe2_in2 [7:0] $end
$var reg 8 Y pe2_in3 [7:0] $end
$var reg 8 Z pe3_in1 [7:0] $end
$var reg 8 [ pe3_in2 [7:0] $end
$var reg 8 \ pe3_in3 [7:0] $end
$var reg 8 ] pe4_in1 [7:0] $end
$var reg 8 ^ pe4_in2 [7:0] $end
$var reg 8 _ pe4_in3 [7:0] $end
$var reg 3 ` pos1 [2:0] $end
$var reg 3 a pos2 [2:0] $end
$var reg 3 b pos3 [2:0] $end
$var reg 2 c region [1:0] $end
$scope module pe_unit1 $end
$var wire 1 & clk $end
$var wire 8 d in1 [7:0] $end
$var wire 8 e in2 [7:0] $end
$var wire 8 f in3 [7:0] $end
$var wire 3 g qi [2:0] $end
$var wire 3 h re_pos_1 [2:0] $end
$var wire 3 i re_pos_2 [2:0] $end
$var wire 3 j re_pos_3 [2:0] $end
$var wire 2 k reset [1:0] $end
$var wire 3 l ri [2:0] $end
$var wire 8 m c [7:0] $end
$var wire 8 n b [7:0] $end
$var wire 8 o a [7:0] $end
$var reg 8 p max [7:0] $end
$var reg 8 q out_current [7:0] $end
$var reg 8 r out_prev [7:0] $end
$var reg 3 s out_re_pos [2:0] $end
$upscope $end
$scope module pe_unit2 $end
$var wire 1 & clk $end
$var wire 8 t in1 [7:0] $end
$var wire 8 u in2 [7:0] $end
$var wire 8 v in3 [7:0] $end
$var wire 3 w qi [2:0] $end
$var wire 3 x re_pos_1 [2:0] $end
$var wire 3 y re_pos_2 [2:0] $end
$var wire 3 z re_pos_3 [2:0] $end
$var wire 2 { reset [1:0] $end
$var wire 3 | ri [2:0] $end
$var wire 8 } c [7:0] $end
$var wire 8 ~ b [7:0] $end
$var wire 8 !" a [7:0] $end
$var reg 8 "" max [7:0] $end
$var reg 8 #" out_current [7:0] $end
$var reg 8 $" out_prev [7:0] $end
$var reg 3 %" out_re_pos [2:0] $end
$upscope $end
$scope module pe_unit3 $end
$var wire 1 & clk $end
$var wire 8 &" in1 [7:0] $end
$var wire 8 '" in2 [7:0] $end
$var wire 8 (" in3 [7:0] $end
$var wire 3 )" qi [2:0] $end
$var wire 3 *" re_pos_1 [2:0] $end
$var wire 3 +" re_pos_2 [2:0] $end
$var wire 3 ," re_pos_3 [2:0] $end
$var wire 2 -" reset [1:0] $end
$var wire 3 ." ri [2:0] $end
$var wire 8 /" c [7:0] $end
$var wire 8 0" b [7:0] $end
$var wire 8 1" a [7:0] $end
$var reg 8 2" max [7:0] $end
$var reg 8 3" out_current [7:0] $end
$var reg 8 4" out_prev [7:0] $end
$var reg 3 5" out_re_pos [2:0] $end
$upscope $end
$scope module pe_unit4 $end
$var wire 1 & clk $end
$var wire 8 6" in1 [7:0] $end
$var wire 8 7" in2 [7:0] $end
$var wire 8 8" in3 [7:0] $end
$var wire 3 9" qi [2:0] $end
$var wire 3 :" re_pos_1 [2:0] $end
$var wire 3 ;" re_pos_2 [2:0] $end
$var wire 3 <" re_pos_3 [2:0] $end
$var wire 2 =" reset [1:0] $end
$var wire 3 >" ri [2:0] $end
$var wire 8 ?" c [7:0] $end
$var wire 8 @" b [7:0] $end
$var wire 8 A" a [7:0] $end
$var reg 8 B" max [7:0] $end
$var reg 8 C" out_current [7:0] $end
$var reg 8 D" out_prev [7:0] $end
$var reg 3 E" out_re_pos [2:0] $end
$upscope $end
$upscope $end
$scope module q_shift $end
$var wire 1 & clk $end
$var wire 1 F" dir $end
$var wire 1 ; en $end
$var wire 3 G" in [2:0] $end
$var wire 1 H" reset $end
$var wire 12 I" temp2 [11:0] $end
$var wire 12 J" temp1 [11:0] $end
$var reg 12 K" out [11:0] $end
$upscope $end
$scope module r_shift $end
$var wire 1 & clk $end
$var wire 1 L" dir $end
$var wire 1 < en $end
$var wire 3 M" in [2:0] $end
$var wire 1 N" reset $end
$var wire 12 O" temp2 [11:0] $end
$var wire 12 P" temp1 [11:0] $end
$var reg 12 Q" out [11:0] $end
$upscope $end
$scope module traceback $end
$var wire 24 R" Q_sub [23:0] $end
$var wire 24 S" R_sub [23:0] $end
$var wire 1 & clk $end
$var wire 8 T" rel_pos [7:0] $end
$var wire 1 A start_traceback $end
$var wire 24 U" R_sub_temp [23:0] $end
$var wire 24 V" Q_sub_temp [23:0] $end
$var reg 1 W" activated $end
$var reg 8 X" addr [7:0] $end
$var reg 1 0 finish $end
$var reg 3 Y" out_q [2:0] $end
$var reg 3 Z" out_r [2:0] $end
$var reg 2 [" pe_id [1:0] $end
$var reg 3 \" q_ctr [2:0] $end
$var reg 3 ]" r_ctr [2:0] $end
$upscope $end
$upscope $end
$upscope $end
$enddefinitions $end
#0
$dumpvars
bx ]"
bx \"
bx ["
bx Z"
bx Y"
bx X"
xW"
bx V"
bx U"
bx T"
b11011010001000011001000 S"
b11000010000011011001000 R"
b0 Q"
b0 P"
b0 O"
zN"
bx M"
1L"
b0 K"
b0 J"
b0 I"
zH"
bx G"
0F"
b111 E"
bx D"
bx C"
b0 B"
bx A"
bx @"
bx ?"
b0 >"
b0 ="
b11 <"
b10 ;"
b1 :"
b0 9"
bx 8"
bx 7"
bx 6"
b111 5"
bx 4"
bx 3"
b0 2"
bx 1"
bx 0"
bx /"
b0 ."
b0 -"
b11 ,"
b10 +"
b1 *"
b0 )"
bx ("
bx '"
bx &"
b111 %"
bx $"
bx #"
b0 ""
bx !"
bx ~
bx }
b0 |
b0 {
b11 z
b10 y
b1 x
b0 w
bx v
bx u
bx t
b11 s
bx r
bx q
b10 p
b11111111 o
b11111111 n
b10 m
b0 l
b0 k
b11 j
b10 i
b1 h
b0 g
b0 f
b0 e
b0 d
b11 c
b11 b
b10 a
b1 `
bx _
bx ^
bx ]
bx \
bx [
bx Z
bx Y
bx X
bx W
b0 V
b0 U
b0 T
b1 S
b0 R
b0 Q
b111111111011 P
bx O
bx N
bx M
bx L
bx K
bx J
bx I
bx H
b0 G
b0 F
b0 E
b0 D
b11111110 C
xB
xA
bx @
x?
bx >
bx =
x<
x;
bx :
b0 9
b0 8
b0 7
bx 6
bx 5
b0 4
b11000010000011011001000 3
b0 2
b11011010001000011001000 1
x0
b111111111011 /
bx .
bx -
bx ,
bx +
b11011010001000011001000 *
b11000010000011011001000 )
bx (
0'
0&
bx %
bx $
x#
b11011010001000011001000 "
b11000010000011011001000 !
$end
#3
1'
#5
b11 E"
b10 B"
b11 5"
b10 2"
b11011011011 /
b11011011011 P
b11 %"
b10 ""
b10 ?"
b0 _
b0 8"
b11111111 @"
b0 ^
b0 7"
b11111111 A"
b0 ]
b0 6"
b10 /"
b0 \
b0 ("
b11111111 0"
b0 [
b0 '"
b11111111 1"
b0 Z
b0 &"
b10 }
b0 Y
b0 v
b11111111 ~
b0 X
b0 u
b11111111 !"
b0 W
b0 t
b0 N
b0 r
b0 O
b0 q
b0 L
b0 $"
b0 M
b0 #"
b0 J
b0 4"
b0 K
b0 3"
b0 H
b0 D"
b0 I
b0 C"
0W"
00
b11000010000011011001000 V"
b111 \"
b11011010001000011001000 U"
b111 ]"
b111 .
b111 Y"
b111 -
b111 Z"
b1011 ,
b1011 X"
b11 +
b11 ["
0A
0?
0<
b0 >
b0 M"
0;
b0 =
b0 G"
0#
0B
b0 :
1&
#9
0'
#10
0&
#15
b10000011011001000000 3
b11 8
1;
b11 =
b11 G"
b0 (
1&
#20
0&
#25
b111011011011 /
b111011011011 P
b111 E"
b0 B"
b11111111 ?"
b11000000 I"
b11 9"
b11000000000 4
b11000000000 R
b11000000000 K"
b10000011011001000000000 3
b110 8
b0 =
b0 G"
b1 (
1&
#30
0&
#35
b11 E"
b10 B"
b11111011011 /
b11111011011 P
b111 5"
b0 2"
b10 ?"
b11111111 /"
b11000000000 J"
b11000 I"
b0 9"
b11 )"
b11011001000000000000 3
b1001 8
b10 =
b10 G"
b11000000 4
b11000000 R
b11000000 K"
b10 (
1&
#40
0&
#45
b111 E"
b0 B"
b11 5"
b10 2"
b111011111011 /
b111011111011 P
b111 %"
b0 ""
b11111111 ?"
b10 /"
b11111111 }
b11000000 J"
b10000011 I"
b10 9"
b0 )"
b11 w
b10000011000 4
b10000011000 R
b10000011000 K"
b11011001000000000000000 3
b1100 8
b0 =
b0 G"
b11 (
1&
#50
0&
#55
b11 E"
b10 B"
b111 5"
b0 2"
b11 %"
b10 ""
b11111011111 /
b11111011111 P
b111 s
b0 p
b10 ?"
b11111111 /"
b10 }
b11111111 m
b10000011000 J"
b10000 I"
b0 9"
b10 )"
b0 w
b11 g
1?
b11010001000011001000000 1
b11 9
b11111111 C
b1 7
1<
b11 >
b11 M"
0;
b10000011 4
b10000011 R
b10000011 K"
b100 (
1&
#60
0&
#65
b11111011011 /
b11111011011 P
b11 s
b10 p
b10 m
b11000 P"
b11 l
b1 c
b1 G
b1 k
b11 2
b11 Q
b11 Q"
b10001000011001000000000 1
b110 9
b0 C
b10 7
b101 (
1&
#70
0&
#75
b11111001011 /
b11111001011 P
b1 %"
b1 ""
b11111111 }
b1 F
b1 {
b1 !"
b10 W
b10 t
b1 n
b10 U
b10 e
b11011000 P"
b11 O"
b11 |
b1000011001000000000000 1
b1001 9
b1 C
b11 7
b10 >
b10 M"
b10 O
b10 q
b11011 2
b11011 Q
b11011 Q"
b110 (
1&
#80
0&
#85
b10 s
b1 p
b11111111 m
b11001001010 /
b11001001010 P
b1 5"
b11011010000 P"
b11011 O"
b11 ."
b10 l
b0 1"
b1 Z
b1 &"
b1 }
b10 Y
b10 v
b0 ~
b1 X
b1 u
b1 E
b1 -"
b11011010 2
b11011010 Q
b11011010 Q"
b10 N
b10 r
b1 M
b1 #"
b11001000000000000000 1
b1100 9
b10 C
b100 7
b1 >
b1 M"
b111 (
1&
#90
0&
#95
b111 E"
b0 B"
b111001011010 /
b111001011010 P
b11 %"
b0 p
b11111111 ?"
b1 D
b1 ="
b0 /"
b1 \
b1 ("
b0 !"
b1 W
b1 t
b0 n
b1 U
b1 e
b11010001000 P"
b11011010 O"
b11 >"
b10 |
b1 l
b11001000000000000000000 3
b1111 8
b11 C
b101 7
0<
b0 >
b0 M"
1;
b11 =
b11 G"
b1 L
b1 $"
b1 O
b1 q
b11011010001 2
b11011010001 Q
b11011010001 Q"
b1000 (
1&
#100
0&
#105
b100 E"
b10 B"
b10 ?"
b111 5"
b100 %"
b11 ""
b100111100110 /
b100111100110 P
b110 s
b10000000 J"
b11000010 I"
b11 9"
b0 )"
b10 w
b0 g
b100 b
b100 j
b100 z
b100 ,"
b100 <"
b110 a
b110 i
b110 y
b110 +"
b110 ;"
b101 `
b101 h
b101 x
b101 *"
b101 :"
b11111111 /"
b0 \
b0 ("
b11111111 1"
b0 Z
b0 &"
b11 }
b1 Y
b1 v
b11111111 ~
b0 X
b0 u
b0 m
b1 V
b1 f
b11 S
b10 c
b11000010000 4
b11000010000 R
b11000010000 K"
b0 O
b0 q
b1 N
b1 r
b11001000000000000000000 1
b1111 9
b100 C
b110 7
1<
0;
b0 =
b0 G"
b1001 (
1&
#110
0&
#115
b100 s
b10 a
b10 i
b10 y
b10 +"
b10 ;"
b1 `
b1 h
b1 x
b1 *"
b1 :"
b1 @"
b10 ^
b10 7"
b10 1"
b11 Z
b11 &"
b10 ~
b11 X
b11 u
b1 5"
b10 2"
b100001010100 /
b100001010100 P
b10 %"
b10 ""
b10 p
b0 }
b10 S
b11111111 A"
b0 ]
b0 6"
b11111111 0"
b0 [
b0 '"
b11111111 !"
b0 W
b0 t
b10 m
b0 V
b0 f
b11111111 n
b0 U
b0 e
b10001000000 P"
b11010001 O"
b10 ."
b1 |
b0 l
b1000000000000000000000 3
b10010 8
b101 C
b111 7
0<
1;
b11 =
b11 G"
b10 I
b10 C"
b11 M
b11 #"
b0 N
b0 r
b11010001000 2
b11010001000 Q
b11010001000 Q"
b1010 (
1&
#120
0&
#125
b101 s
b1 p
b11111111 m
b100 B"
b101 5"
b1 2"
b100101100101 /
b100101100101 P
b100 %"
b11000010000 J"
b11011000 I"
b11 )"
b0 w
b10 g
b110 a
b110 i
b110 y
b110 +"
b110 ;"
b101 `
b101 h
b101 x
b101 *"
b101 :"
b100 ?"
b10 _
b10 8"
b11111111 @"
b0 ^
b0 7"
b1 A"
b10 ]
b10 6"
b1 0"
b10 [
b10 '"
b1 1"
b10 Z
b10 &"
b10 }
b11 Y
b11 v
b1 ~
b10 X
b10 u
b1 !"
b10 W
b10 t
b1 n
b10 U
b10 e
b1 o
b10 T
b10 d
b11 S
b11011000010 4
b11011000010 R
b11011000010 K"
b10 O
b10 q
b10 M
b10 #"
b11 L
b11 $"
b10 K
b10 3"
b10 H
b10 D"
b1000000000000000000000 1
b10010 9
b110 C
b1000 7
1<
b11 >
b11 M"
0;
b0 =
b0 G"
b1011 (
1&
#130
0&
#135
b10 a
b10 i
b10 y
b10 +"
b10 ;"
b1 `
b1 h
b1 x
b1 *"
b1 :"
b11 @"
b100 ^
b100 7"
b0 !"
b1 W
b1 t
b0 n
b1 U
b1 e
b10 E"
b11 B"
b1 5"
b1 2"
b100 ""
b10001100100 /
b10001100100 P
b100 s
b1 ?"
b10 S
b0 A"
b1 ]
b1 6"
b1 /"
b10 \
b10 ("
b0 0"
b1 [
b1 '"
b1 1"
b10 Z
b10 &"
b100 }
b10 Y
b10 v
b1 ~
b10 X
b10 u
b1 m
b10 V
b10 f
b11111111 o
b0 T
b0 d
b1000011000 P"
b10001000 O"
b10 >"
b1 ."
b0 |
b11 l
b0 3
b10101 8
b111 C
b1001 7
0<
b0 >
b0 M"
1;
b1 =
b1 G"
b100 I
b100 C"
b1 K
b1 3"
b10 J
b10 4"
b10 L
b10 $"
b1 O
b1 q
b10 N
b10 r
b10001000011 2
b10001000011 Q
b10001000011 Q"
b1100 (
1&
#140
0&
#145
b101 %"
b11 ""
b1 }
b100 E"
b110 5"
b10 2"
b100110101110 /
b100110101110 P
b110 s
b11 p
b11011000000 J"
b1011011 I"
b1 9"
b11 w
b0 g
b110 a
b110 i
b110 y
b110 +"
b110 ;"
b101 `
b101 h
b101 x
b101 *"
b101 :"
b11 ?"
b100 _
b100 8"
b11111111 @"
b0 ^
b0 7"
b10 A"
b11 ]
b11 6"
b0 /"
b1 \
b1 ("
b10 0"
b11 [
b11 '"
b0 1"
b1 Z
b1 &"
b0 ~
b1 X
b1 u
b11 !"
b100 W
b100 t
b0 m
b1 V
b1 f
b11 n
b100 U
b100 e
b0 o
b1 T
b1 d
b11 S
b1011011000 4
b1011011000 R
b1011011000 K"
b1 N
b1 r
b100 M
b100 #"
b1 J
b1 4"
b11 I
b11 C"
b100 H
b100 D"
b0 1
b10101 9
b1000 C
b1010 7
1<
b1 >
b1 M"
0;
b0 =
b0 G"
b1101 (
1&
#150
0&
#155
b1 5"
b10 a
b10 i
b10 y
b10 +"
b10 ;"
b1 `
b1 h
b1 x
b1 *"
b1 :"
b10 @"
b11 ^
b11 7"
b1 A"
b10 ]
b10 6"
b1 0"
b10 [
b10 '"
b101 B"
b100 %"
b110 ""
b100001100010 /
b100001100010 P
b10 s
b10 p
b10 S
b101 ?"
b11 _
b11 8"
b10 1"
b11 Z
b11 &"
b110 }
b100 Y
b100 v
b10 ~
b11 X
b11 u
b10 !"
b11 W
b11 t
b10 n
b11 U
b11 e
b11111111 o
b0 T
b0 d
b11001000 P"
b1000011 O"
b1 >"
b0 ."
b11 |
b1 l
b11000 8
b1001 C
b1011 7
0<
b0 >
b0 M"
1;
b11 H
b11 D"
b10 K
b10 3"
b11 M
b11 #"
b100 L
b100 $"
b11 O
b11 q
b1000011001 2
b1000011001 Q
b1000011001 Q"
b1110 (
1&
#160
0&
#165
b101 E"
b100 B"
b10 ?"
b110 5"
b100 2"
b101 %"
b101 ""
b101110101110 /
b101110101110 P
b110 s
b101 p
b1011011000 J"
b1011 I"
b0 9"
b1 )"
b11 g
b110 a
b110 i
b110 y
b110 +"
b110 ;"
b101 `
b101 h
b101 x
b101 *"
b101 :"
b11111111 @"
b0 ^
b0 7"
b100 A"
b101 ]
b101 6"
b1 /"
b10 \
b10 ("
b100 0"
b101 [
b101 '"
b1 1"
b10 Z
b10 &"
b101 }
b11 Y
b11 v
b1 ~
b10 X
b10 u
b101 !"
b110 W
b110 t
b10 m
b11 V
b11 f
b101 n
b110 U
b110 e
b1 o
b10 T
b10 d
b11 S
b1011011 4
b1011011 R
b1011011 K"
b10 O
b10 q
b11 N
b11 r
b110 M
b110 #"
b11 L
b11 $"
b10 J
b10 4"
b101 I
b101 C"
b11000 9
b1010 C
b1100 7
1<
0;
b1111 (
1&
#170
0&
#175
b10 a
b10 i
b10 y
b10 +"
b10 ;"
b1 `
b1 h
b1 x
b1 *"
b1 :"
b11 @"
b100 ^
b100 7"
b100 E"
b111 B"
b1 5"
b100 2"
b100 %"
b100001100010 /
b100001100010 P
b10 s
b100 p
b10 S
b111 ?"
b101 _
b101 8"
b11 A"
b100 ]
b100 6"
b11 0"
b100 [
b100 '"
b100 1"
b101 Z
b101 &"
b101 }
b110 Y
b110 v
b100 ~
b101 X
b101 u
b100 !"
b101 W
b101 t
b1 m
b10 V
b10 f
b100 n
b101 U
b101 e
b11111111 o
b0 T
b0 d
b11001000000 P"
b11001 O"
b0 >"
b11 ."
b1 |
b0 l
b1011 C
b1101 7
b100 I
b100 C"
b101 H
b101 D"
b100 K
b100 3"
b101 M
b101 #"
b110 L
b110 $"
b101 O
b101 q
b10 N
b10 r
b11001000 2
b11001000 Q
b11001000 Q"
b10000 (
1&
#180
0&
#185
b11 5"
b111 2"
b10 E"
b110 B"
b10 %"
b100 ""
b10011010111 /
b10011010111 P
b111 s
b0 p
b1000000000 P"
b11001000 O"
b11 >"
b1 ."
b0 |
b11 b
b11 j
b11 z
b11 ,"
b11 <"
b11 ?"
b100 _
b100 8"
b110 @"
b111 ^
b111 7"
b111 /"
b101 \
b101 ("
b100 }
b101 Y
b101 v
b11 !"
b100 W
b100 t
b11111111 m
b0 V
b0 f
b11111111 n
b0 U
b0 e
b1 S
b11 c
b11001000000 2
b11001000000 Q
b11001000000 Q"
b100 O
b100 q
b101 N
b101 r
b101 L
b101 $"
b100 J
b100 4"
b111 I
b111 C"
b100 H
b100 D"
b1100 C
b1110 7
b10001 (
1&
#190
0&
#195
b1 E"
b1010010111 /
b1010010111 P
b10 5"
b110 2"
b11 ""
b100 /"
b101 @"
b110 ^
b110 7"
b110 A"
b111 ]
b111 6"
b110 0"
b111 [
b111 '"
b11 1"
b100 Z
b100 &"
b11 }
b100 Y
b100 v
b11 ~
b100 X
b100 u
b11111111 !"
b0 W
b0 t
b0 P"
b1000000 O"
b1 >"
b0 ."
b1101 C
b1111 7
b110 I
b110 C"
b111 H
b111 D"
b111 K
b111 3"
b100 M
b100 #"
b0 O
b0 q
b100 N
b100 r
b1000000000 2
b1000000000 Q
b1000000000 Q"
b10010 (
1&
#200
0&
#205
b1001 B"
b11010010111 /
b11010010111 P
b11 E"
b101 2"
b10 ""
b0 O"
b0 >"
b1001 ?"
b111 _
b111 8"
b101 A"
b110 ]
b110 6"
b11 /"
b100 \
b100 ("
b101 0"
b110 [
b110 '"
b10 1"
b11 Z
b11 &"
b11111111 }
b0 Y
b0 v
b10 ~
b11 X
b11 u
b0 2
b0 Q
b0 Q"
b0 N
b0 r
b11 M
b11 #"
b100 L
b100 $"
b110 K
b110 3"
b111 J
b111 4"
b110 H
b110 D"
b1110 C
b10000 7
b10011 (
1&
#210
0&
#215
b10010010111 /
b10010010111 P
b10 E"
b1000 B"
b100 2"
b1 ""
b11 @
b11 T"
b1000 ?"
b110 _
b110 8"
b1000 @"
b1001 ^
b1001 7"
b100 A"
b101 ]
b101 6"
b10 /"
b11 \
b11 ("
b100 0"
b101 [
b101 '"
b1 1"
b10 Z
b10 &"
b1 ~
b10 X
b10 u
1A
0?
0<
b1001 I
b1001 C"
b101 K
b101 3"
b110 J
b110 4"
b10 M
b10 #"
b11 L
b11 $"
b10100 (
1&
#220
0&
#225
b111 B"
b11 2"
b0 ""
b111 ?"
b101 _
b101 8"
b111 @"
b1000 ^
b1000 7"
b11 A"
b100 ]
b100 6"
b1 /"
b10 \
b10 ("
b11 0"
b100 [
b100 '"
b0 1"
b1 Z
b1 &"
b0 ~
b1 X
b1 u
b1 M
b1 #"
b10 L
b10 $"
b100 K
b100 3"
b101 J
b101 4"
b1000 I
b1000 C"
b1001 H
b1001 D"
1W"
b11 :
b10101 (
1&
#230
0&
#235
b110 B"
b10 2"
b10010111111 /
b10010111111 P
b111 %"
b110 ?"
b100 _
b100 8"
b110 @"
b111 ^
b111 7"
b10 A"
b11 ]
b11 6"
b0 /"
b1 \
b1 ("
b10 0"
b11 [
b11 '"
b11111111 1"
b0 Z
b0 &"
b11111111 ~
b0 X
b0 u
b110 :
b11000010000011011001 V"
b110 \"
b11011010001000011001 U"
b110 ]"
b0 .
b0 Y"
b0 -
b0 Z"
b1010 ,
b1010 X"
b10 +
b10 ["
b111 I
b111 C"
b1000 H
b1000 D"
b11 K
b11 3"
b100 J
b100 4"
b0 M
b0 #"
b1 L
b1 $"
b10110 (
1&
#240
0&
#245
b101 B"
b1 2"
b101 ?"
b11 _
b11 8"
b101 @"
b110 ^
b110 7"
b1 A"
b10 ]
b10 6"
b11111111 /"
b0 \
b0 ("
b1 0"
b10 [
b10 '"
b101 @
b101 T"
b0 L
b0 $"
b10 K
b10 3"
b11 J
b11 4"
b110 I
b110 C"
b111 H
b111 D"
b11000010000011011 V"
b101 \"
b11011010001000011 U"
b101 ]"
b1 .
b1 Y"
b1 -
b1 Z"
b1001 ,
b1001 X"
b1 +
b1 ["
b1001 :
bx000 %
bx000 5
bx000 $
bx000 6
b10111 (
1&
#250
0&
#255
b100 B"
b0 2"
b100 @
b100 T"
b100 ?"
b10 _
b10 8"
b100 @"
b101 ^
b101 7"
b0 A"
b1 ]
b1 6"
b0 0"
b1 [
b1 '"
b1100 :
bx001000 %
bx001000 5
bx001000 $
bx001000 6
b11000010000011 V"
b100 \"
b11 .
b11 Y"
b100 -
b100 Z"
b1000 ,
b1000 X"
b101 I
b101 C"
b110 H
b110 D"
b1 K
b1 3"
b10 J
b10 4"
b11000 (
1&
#260
0&
#265
b11 B"
b10111111111 /
b10111111111 P
b111 5"
b11 ?"
b1 _
b1 8"
b11 @"
b100 ^
b100 7"
b11111111 A"
b0 ]
b0 6"
b11111111 0"
b0 [
b0 '"
b0 K
b0 3"
b1 J
b1 4"
b100 I
b100 C"
b101 H
b101 D"
b11000010000 V"
b11 \"
b11011010001000 U"
b100 ]"
b11 -
b11 Z"
b110 ,
b110 X"
b1111 :
bx011001000 %
bx011001000 5
bx100001000 $
bx100001000 6
b11001 (
1&
#270
0&
#275
b10 B"
b10 @
b10 T"
b10 ?"
b0 _
b0 8"
b10 @"
b11 ^
b11 7"
b10010 :
bx011011001000 %
bx011011001000 5
bx011100001000 $
bx011100001000 6
b11000010 V"
b10 \"
b11011010001 U"
b11 ]"
b0 .
b0 Y"
b0 -
b0 Z"
b100 ,
b100 X"
b11 I
b11 C"
b100 H
b100 D"
b0 J
b0 4"
b11010 (
1&
#280
0&
#285
b11111111111 /
b11111111111 P
b11 E"
b1 @"
b10 ^
b10 7"
b100 @
b100 T"
b10 I
b10 C"
b11 H
b11 D"
b11011010 U"
b10 ]"
b100 .
b100 Y"
b1 -
b1 Z"
b11 ,
b11 X"
b10101 :
bx000011011001000 %
bx000011011001000 5
bx000011100001000 $
bx000011100001000 6
b11011 (
1&
#290
0&
#295
b1 @
b1 T"
b11000 :
bx100000011011001000 %
bx100000011011001000 5
bx001000011100001000 $
bx001000011100001000 6
b11000 V"
b1 \"
b11011 U"
b1 ]"
b10 .
b10 Y"
b10 -
b10 Z"
b1 ,
b1 X"
b10 H
b10 D"
b11100 (
1&
#300
0&
#305
b11 @
b11 T"
b11 V"
b0 \"
b0 .
b0 Y"
b100 -
b100 Z"
b0 +
b0 ["
b11011 :
bx010100000011011001000 %
bx010100000011011001000 5
bx010001000011100001000 $
bx010001000011100001000 6
b11101 (
1&
#310
0&
#315
b111 @
b111 T"
b11110 :
bx000010100000011011001000 %
bx000010100000011011001000 5
bx100010001000011100001000 $
bx100010001000011100001000 6
b11000010000011011001000 V"
b111 \"
b11 U"
b0 ]"
b11 .
b11 Y"
b11 -
b11 Z"
b0 ,
b0 X"
b11 +
b11 ["
b11110 (
1&
#320
0&
#325
b11 @
b11 T"
10
b11000010000011011001 V"
b110 \"
b11011010001000011001000 U"
b111 ]"
b0 .
b0 Y"
b0 +
b0 ["
b100001 :
bx011000010100000011011001000 %
bx011000010100000011011001000 5
bx011100010001000011100001000 $
bx011100010001000011100001000 6
b11111 (
1&
#330
0&
#335
bx @
bx T"
b0 :
1#
1B
00
b11000010000011011 V"
b101 \"
b11011010001000011001 U"
b110 ]"
b1 .
b1 Y"
b0 -
b0 Z"
b11111111 ,
b11111111 X"
b11 +
b11 ["
b100000 (
1&
#340
0&
#345
b11 @
b11 T"
10
b11000010000011 V"
b100 \"
b11011010001000011 U"
b101 ]"
b11 .
b11 Y"
b1 -
b1 Z"
b0 ,
b0 X"
b0 +
b0 ["
0#
0B
b11 :
b100001 (
1&
#350
0&
#355
bx @
bx T"
b0 :
1#
1B
00
b11000010000 V"
b11 \"
b11011010001000 U"
b100 ]"
b11 -
b11 Z"
b11111111 ,
b11111111 X"
b11 +
b11 ["
b100010 (
1&
#360
0&
#365
b11 @
b11 T"
10
b11000010 V"
b10 \"
b11011010001 U"
b11 ]"
b0 .
b0 Y"
b0 -
b0 Z"
b0 ,
b0 X"
b0 +
b0 ["
0#
0B
b11 :
b100011 (
1&
#370
0&
#375
bx @
bx T"
b0 :
1#
1B
00
b11000 V"
b1 \"
b11011010 U"
b10 ]"
b10 .
b10 Y"
b1 -
b1 Z"
b11111111 ,
b11111111 X"
b11 +
b11 ["
b100100 (
1&
#380
0&
#385
b11 @
b11 T"
10
b11 V"
b0 \"
b11011 U"
b1 ]"
b0 .
b0 Y"
b10 -
b10 Z"
b0 ,
b0 X"
b0 +
b0 ["
0#
0B
b11 :
b100101 (
1&
#390
0&
#395
bx @
bx T"
b0 :
1#
1B
00
b11000010000011011001000 V"
b111 \"
b11 U"
b0 ]"
b11 .
b11 Y"
b11 -
b11 Z"
b11111111 ,
b11111111 X"
b11 +
b11 ["
b100110 (
1&
#400
0&
#405
b11 @
b11 T"
10
b11000010000011011001 V"
b110 \"
b11011010001000011001000 U"
b111 ]"
b0 .
b0 Y"
b0 ,
b0 X"
b0 +
b0 ["
0#
0B
b11 :
b100111 (
1&
#410
0&
#415
bx @
bx T"
b0 :
1#
1B
00
b11000010000011011 V"
b101 \"
b11011010001000011001 U"
b110 ]"
b1 .
b1 Y"
b0 -
b0 Z"
b11111111 ,
b11111111 X"
b11 +
b11 ["
b101000 (
1&
#420
0&
#425
b11 @
b11 T"
10
b11000010000011 V"
b100 \"
b11011010001000011 U"
b101 ]"
b11 .
b11 Y"
b1 -
b1 Z"
b0 ,
b0 X"
b0 +
b0 ["
0#
0B
b11 :
b101001 (
1&
#430
0&
#435
bx @
bx T"
b0 :
1#
1B
00
b11000010000 V"
b11 \"
b11011010001000 U"
b100 ]"
b11 -
b11 Z"
b11111111 ,
b11111111 X"
b11 +
b11 ["
b101010 (
1&
#440
0&
